00035C57 DN001_CheifsSafe 2991.4672, -391.9947, 100.6589, 358 Urban Wattz
001A8DBE XMarkerHeading -509.756, 51.096, -0.1 Wattz 3000
001DE522 Inst307Stage15EvanMarker001 -221.3296, 140.5877, -2.3156, 43.86 WTZ-i06
00144ED9 DN070_Treasures_Enable2 350.64, -374.55, -14.9, 259.65 Liberator
000ADD9B XMarkerHeading 823.7317, -1044.1494, -152.0367, 274.58 Disintegrator
000BA072 BoSM01_Bunker_BrandisMarker 243.0883, 220.8484, 0.41, 182.17 Ad Victoriam