*Makeshift
~Ammo
ccSBJFO4003-Grenade.esl|AMMO|ccSBJFO4003_Ammo40mmAcid|40mm Acid Grenade|0x000001CC|0x00000000
ccSBJFO4003-Grenade.esl|AMMO|ccSBJFO4003_Ammo40mmCryo|40mm Cryo|0x00000021|0x00000000
ccSBJFO4003-Grenade.esl|AMMO|ccSBJFO4003_Ammo40mmFlechette|40mm Flechette|0x00000023|0x00000000
ccSBJFO4003-Grenade.esl|AMMO|ccSBJFO4003_Ammo40mmFrag|40mm Frag Grenade|0x00000F9E|0x00000000
ccSBJFO4003-Grenade.esl|AMMO|ccSBJFO4003_Ammo40mmIncendiary|40mm Incendiary|0x000000C3|0x00000000
ccSBJFO4003-Grenade.esl|AMMO|ccSBJFO4003_Ammo40mmLaser|40mm Laser|0x00000020|0x00000000
ccSBJFO4003-Grenade.esl|AMMO|ccSBJFO4003_Ammo40mmMirv|40mm Mirv|0x00000022|0x00000000
ccSBJFO4003-Grenade.esl|AMMO|ccSBJFO4003_Ammo40mmNuka|40mm Nuka|0x0000001F|0x00000000
ccSBJFO4003-Grenade.esl|AMMO|ccSBJFO4003_Ammo40mmPlasma|40mm Plasma|0x0000001E|0x00000000
ccSBJFO4003-Grenade.esl|AMMO|ccSBJFO4003_Ammo40mmPulse|40mm Pulse|0x00000026|0x00000000
ccSBJFO4003-Grenade.esl|AMMO|ccSBJFO4003_Ammo40mmRocket|40mm Rocket|0x00000025|0x00000000
ccSBJFO4003-Grenade.esl|AMMO|ccSBJFO4003_Ammo40mmTEST|40mm TEST|0x00000024|0x00000000
ccSBJFO4003-Grenade.esl|AMMO|ccSBJFO4003_AmmoBaseballLauncher|Modified Baseball|0x0000018F|0x00000000
ccSBJFO4003-Grenade.esl|AMMO|ccSBJFO4003_AmmoBaseballLauncherExplosive|Modified Baseball Grenade|0x00000190|0x00000000
ccSBJFO4003-Grenade.esl|AMMO|ccSBJFO4003_AmmoFatManPiggyBankBomb|Piggy Bank Launcher Bomb|0x000000F6|0x00000000
ccSBJFO4003-Grenade.esl|AMMO|ccSBJFO4003_AmmoSawdisk|Saw Blade|0x00000159|0x00000000
ccSBJFO4003-Grenade.esl|AMMO|ccSBJFO4004_AmmoNailgun|Nails|0x00000205|0x00000000